ARS1,ARS2,ARS3,ARS4,ARS5,ARSFINAL,ARE1,ARE2,ARE3,ARE4,ARE5,AREFINAL
5,6,4,4,6,5,6,2,6,3,2,6
7,7,7,7,7,7,7,7,7,7,7,7
6,5,6,5,7,6,7,6,7,5,6,7
4,5,4,5,5,4,5,4,4,3,3,5
5,3,6,6,5,5,5,3,3,3,3,5
1,2,6,1,4,1,3,1,1,1,1,3
5,3,6,5,5,5,3,2,2,3,3,3
7,6,6,7,7,7,7,7,6,6,6,7
6,6,6,6,6,6,6,6,6,5,4,6
6,5,5,7,6,6,6,6,6,6,6,6
4,3,2,4,5,4,5,4,4,3,3,5
6,6,6,6,6,6,7,7,7,6,6,7
5,5,4,3,6,5,6,4,5,4,4,6
5,5,6,5,4,5,5,5,5,4,5,5
7,7,7,6,7,7,2,3,3,6,6,2
,,,,,6,,,,,,2
,,,,,7,,,,,,7
,,,,,5,,,,,,6
,,,,,5,,,,,,4
,,,,,3,,,,,,3
,,,,,2,,,,,,1
,,,,,3,,,,,,2
,,,,,6,,,,,,7
,,,,,6,,,,,,6
,,,,,5,,,,,,6
,,,,,3,,,,,,4
,,,,,6,,,,,,7
,,,,,5,,,,,,4
,,,,,5,,,,,,5
,,,,,7,,,,,,3
,,,,,4,,,,,,6
,,,,,7,,,,,,7
,,,,,6,,,,,,7
,,,,,4,,,,,,4
,,,,,6,,,,,,3
,,,,,6,,,,,,1
,,,,,6,,,,,,2
,,,,,6,,,,,,6
,,,,,6,,,,,,6
,,,,,5,,,,,,6
,,,,,2,,,,,,4
,,,,,6,,,,,,7
,,,,,4,,,,,,5
,,,,,6,,,,,,5
,,,,,7,,,,,,3
,,,,,4,,,,,,3
,,,,,7,,,,,,7
,,,,,5,,,,,,5
,,,,,5,,,,,,3
,,,,,6,,,,,,3
,,,,,1,,,,,,1
,,,,,5,,,,,,3
,,,,,7,,,,,,6
,,,,,6,,,,,,5
,,,,,7,,,,,,6
,,,,,4,,,,,,3
,,,,,6,,,,,,6
,,,,,3,,,,,,4
,,,,,5,,,,,,4
,,,,,6,,,,,,6
,,,,,6,,,,,,2
,,,,,7,,,,,,7
,,,,,7,,,,,,6
,,,,,5,,,,,,3
,,,,,5,,,,,,3
,,,,,4,,,,,,1
,,,,,5,,,,,,3
,,,,,7,,,,,,6
,,,,,6,,,,,,4
,,,,,6,,,,,,6
,,,,,5,,,,,,3
,,,,,6,,,,,,6
,,,,,6,,,,,,4
,,,,,4,,,,,,5
,,,,,7,,,,,,6