mental,physical,temporal,performance,effort,frustration
6,4,3,3,5,5
5,3,3,3,6,3
5,1,1,2,6,3
6,3,4,5,5,2
7,5,2,2,6,1
5,4,1,5,4,2
2,4,1,6,2,1
1,2.00E+00,2.00E+00,6.00E+00,2.00E+00,1.00E+00
4,6,3,1,4,2
3,3,3,2,6,2
6,1,1,5,7,5
6,3,3,6,6,5
7,5,3,2,6,5
2,3,2,1,2,1
3,2,2,3,5,2
5,1,1,2,5,3
4,3,3,5,4,4
3,3,3,6,6,6
,,,,,
,,,,,
4.44E+00,3.11E+00,2.28E+00,3.61E+00,4.83E+00,2.94E+00
1.79E+00,1.41E+00,9.58E-01,1.85E+00,1.54E+00,1.66E+00