test,score
post,4
post,7
post,5
post,5
post,6
post,1
post,5
post,7
post,6
post,7
post,4
post,6
post,3
post,5
post,6
post,6
post,7
pre,5
pre,7
pre,4
pre,4
pre,5
pre,6
pre,5
pre,6
pre,6
pre,6
pre,1
pre,2
pre,4
pre,4
pre,5