,,,,,,,,,test,score
,,,,,,,,,post,2
,,,,,,,,,post,7
,,,,,,,,,post,6
,,,,,,,,,post,3
,,,,,,,,,post,3
,,,,,,,,,post,1
,,,,,,,,,post,3
,,,,,,,,,post,6
,,,,,,,,,post,4
,,,,,,,,,post,6
,,,,,,,,,post,3
,,,,,,,,,post,6
,,,,,,,,,post,4
,,,,,,,,,post,5
,,,,,,,,,post,6
,,,,,,,,,pre,4
,,,,,,,,,pre,6
,,,,,,,,,pre,1
,,,,,,,,,pre,2
,,,,,,,,,pre,1
,,,,,,,,,pre,3
,,,,,,,,,pre,3
,,,,,,,,,pre,6
,,,,,,,,,pre,6
,,,,,,,,,pre,4
,,,,,,,,,pre,1
,,,,,,,,,pre,3
,,,,,,,,,pre,1
,,,,,,,,,pre,2
,,,,,,,,,pre,3