,,,,,test,score
,,,,,post,6
,,,,,post,7
,,,,,post,7
,,,,,post,5
,,,,,post,5
,,,,,post,3
,,,,,post,3
,,,,,post,7
,,,,,post,6
,,,,,post,6
,,,,,post,5
,,,,,post,7
,,,,,post,6
,,,,,post,5
,,,,,post,2
,,,,,pre,4
,,,,,pre,5
,,,,,pre,1
,,,,,pre,2
,,,,,pre,1
,,,,,pre,4
,,,,,pre,3
,,,,,pre,7
,,,,,pre,6
,,,,,pre,3
,,,,,pre,1
,,,,,pre,3
,,,,,pre,2
,,,,,pre,2
,,,,,pre,6