,,,,test,score
,,,,post,5
,,,,post,7
,,,,post,6
,,,,post,4
,,,,post,5
,,,,post,1
,,,,post,5
,,,,post,7
,,,,post,6
,,,,post,6
,,,,post,4
,,,,post,6
,,,,post,5
,,,,post,5
,,,,post,7
,,,,post,6
,,,,post,7
,,,,post,5
,,,,post,5
,,,,post,3
,,,,post,2
,,,,post,3
,,,,post,6
,,,,post,6
,,,,post,5
,,,,post,3
,,,,post,6
,,,,post,5
,,,,post,5
,,,,post,7
,,,,post,4
,,,,post,7
,,,,post,6
,,,,post,4
,,,,post,6
,,,,post,6
,,,,post,6
,,,,post,6
,,,,post,6
,,,,post,5
,,,,post,2
,,,,post,6
,,,,post,4
,,,,post,6
,,,,post,7
,,,,post,4
,,,,post,7
,,,,post,5
,,,,post,5
,,,,post,6
,,,,post,1
,,,,post,5
,,,,post,7
,,,,post,6
,,,,post,7
,,,,post,4
,,,,post,6
,,,,post,3
,,,,post,5
,,,,post,6
,,,,post,6
,,,,post,7
,,,,post,7
,,,,post,5
,,,,post,5
,,,,post,4
,,,,post,5
,,,,post,7
,,,,post,6
,,,,post,6
,,,,post,5
,,,,post,6
,,,,post,6
,,,,post,4
,,,,post,7
,,,,post,7
,,,,post,6
,,,,post,7
,,,,post,6
,,,,post,7
,,,,post,6
,,,,post,6
,,,,post,7
,,,,post,6
,,,,post,7
,,,,pre,2
,,,,pre,6
,,,,pre,1
,,,,pre,3
,,,,pre,1
,,,,pre,1
,,,,pre,3
,,,,pre,6
,,,,pre,7
,,,,pre,4
,,,,pre,2
,,,,pre,3
,,,,pre,2
,,,,pre,2
,,,,pre,7
,,,,pre,2
,,,,pre,6
,,,,pre,2
,,,,pre,5
,,,,pre,3
,,,,pre,3
,,,,pre,2
,,,,pre,4
,,,,pre,7
,,,,pre,3
,,,,pre,1
,,,,pre,3
,,,,pre,5
,,,,pre,5
,,,,pre,5
,,,,pre,4
,,,,pre,6
,,,,pre,4
,,,,pre,3
,,,,pre,3
,,,,pre,6
,,,,pre,4
,,,,pre,5
,,,,pre,6
,,,,pre,6
,,,,pre,1
,,,,pre,2
,,,,pre,4
,,,,pre,3
,,,,pre,5
,,,,pre,5
,,,,pre,7
,,,,pre,4
,,,,pre,4
,,,,pre,5
,,,,pre,6
,,,,pre,5
,,,,pre,6
,,,,pre,6
,,,,pre,6
,,,,pre,1
,,,,pre,2
,,,,pre,4
,,,,pre,4
,,,,pre,5
,,,,pre,6
,,,,pre,6
,,,,pre,2
,,,,pre,2
,,,,pre,3
,,,,pre,5
,,,,pre,4
,,,,pre,6
,,,,pre,6
,,,,pre,5
,,,,pre,1
,,,,pre,2
,,,,pre,5
,,,,pre,3
,,,,pre,7