score,test
5,bvi
1,bvi
3,bvi
2,bvi
3,bvi
1,bvi
3,bvi
3,bvi
3,bvi
3,bvi
4,bvi
6,bvi
3,bvi
3,bvi
2,bvi
4,bvi
3,bvi
2,bvi
2,bvi
3,bvi
2,sighted
1,sighted
1,sighted
5,sighted
3,sighted
5,sighted
6,sighted
7,sighted
7,sighted
2,sighted
6,sighted
4,sighted
4,sighted
1,sighted
4,sighted
3,sighted
1,sighted
4,sighted
3,sighted
3,sighted
2,sighted
2,sighted
5,sighted
5,sighted
4,sighted
2,sighted
1,sighted
4,sighted
2,sighted
1,sighted
2,sighted
1,sighted
3,sighted
3,sighted
1,sighted
6,sighted
4,sighted
2,sighted
1,sighted
5,sighted
4,sighted
3,sighted
4,sighted
3,sighted
5,sighted
4,sighted
2,sighted
5,sighted
2,sighted
6,sighted
3,sighted
2,sighted
3,sighted
3,sighted
5,sighted
2,sighted
6,sighted
6,sighted
2,sighted
6,sighted
3,sighted
2,sighted
3,sighted
1,sighted
4,sighted
2,sighted
7,sighted
2,sighted
2,sighted
4,sighted
5,sighted
4,sighted
7,sighted
3,sighted
6,sighted
7,sighted
5,sighted