correct,dist,ydist,time,yacc,h-dist,,,acc,,,,yacc,,,,,,,,,,,,,
0,2,1,50.7646,0,1,,,FIX-ABS ttest,,,,FIX-ABS wilcox,,,,,,,,,,,,,
0,1,1,30.71455,0,0,,,P < 2.2e-16,,,,P < 2.2e-16,,,,,,,,,,,,,
0,2,2,43.33278,0,0,,,,,,,,,,,,,,,,,,,,
1,0,0,34.71139,1,0,,,FIX-REL ttest,,,,FIX-REL ttest,,,,,,,,,,,,,
1,0,0,38.99376,1,0,,,p = 0.7148,,,, p = 0.3679,,,,,,,,,,,,,
0,1,1,37.67583,0,0,,,,,,,,,,,,,,,,,,,,
1,0,0,26.48523,1,0,,,ABS-REL ttest,,,,ABS-REL wilcox,,,,,,,,,,,,,
1,0,0,37.83676,1,0,,,p < 2.2e-16,,,,P < 2.2e-16,,,0.4748603352,accuracy,179,,,,,,,,
0,2,1,35.70158,0,1,,,,,,,,,,0.7541899441,avg dist,179,,0.4748603352,ACC,,,,,
1,0,0,47.73446,1,0,dist,,,,ydist,,,,,0.5083798883,avg y dist,179,,0.5586592179,ACC y,,,,,
0,1,1,26.39344,0,0,FIX-ABS wilcox,,,,FIX-ABS wilcox,,,,,39.6155083,avg time,189,,,,,,,,
0,1,1,68.20808,0,0,P < 2.2e-16,,,,P < 2.2e-16,,,,,0.5586592179,Yacc,,,,,,,,,
1,0,0,67.01479,1,0,,,,,,,,,,,,,2D,Y,,,,,,
1,0,0,60.90406,1,0,FIX-REL wilcox,,,,FIX-REL wilcox,,,,,,,distance in cm,36.95530726,24.91061453,,,,,,
0,1,1,63.49517,0,0, p = 0.3763,,,, p = 0.1003,,,,,,,,,,,,,,https://www.statskingdom.com/shapiro-wilk-test-calculator.html,
0,1,1,30.51549,0,0,,,,,,,,,correct,dist,ydist,time,yacc,hdist,,exp p value,exp. value,,https://www.mathportal.org/calculators/statistics-calculator/normal-distribution-calculator.php,
1,0,0,56.08308,1,0,ABS-REL wilcox,,,,ABS-REL wilcox,,,avg,0.4748603352,0.7541899441,0.5083798883,39.6155083,0.5586592179,,,,,,https://www.graphpad.com/quickcalcs/chisquared2/,
0,1,1,51.69543,0,0,P < 2.2e-16,,,,P < 2.2e-16,,,stdev,0.5007683507,0.8906012284,0.6479762366,21.73961883,0.4979400161,,,,,,,
1,0,0,27.50816,1,0,,,,,,,,,,,,,,,correctness,,,,,
1,0,0,34.92074,1,0,,,,,,,,0,94,85,100,,79,138,0.5-,0.5199,93.0621,,0.02,Chi squared equals 0.020 with 1 degrees of freedom.
0,1,0,73.45369,1,1,time,,,,,,,1,85,62,69,,100,37,0.5+,0.4801,85.9379,,0.8884,The two-tailed P value equals 0.8884
1,0,0,27.60028,1,0,FIX-ABS wilcox,,,,,,,2,,26,9,,,3,,1,179,,normally distributed,
1,0,0,50.91082,1,0,"P = 0.0004687
",,,,,,,3,,4,0,,,1,,,,,,
0,1,0,61.2253,1,1,,,,,,,,4,,1,1,,,0,distance,,,,,
0,2,1,78.68112,0,1,FIX-REL wilcox,,,,,,,5,,1,0,,,0,0.5-,0.3859,69.0761,,6.049,Chi squared equals 6.049 with 2 degrees of freedom.
1,0,0,53.62041,1,0, p = 3.773e-08,,,,,,,,,,,,,,0.5--1.5,0.4136,74.0344,,0.0486,The two-tailed P value equals 0.0486
0,1,1,103.234,0,0,,,,,,,,,,,,,,,1.5+,0.2005,35.8895,,NOT n.d.,
0,1,1,34.6915,0,0,ABS-REL wilcox,,,,,,,,,,,,,,,1,179,,,
1,0,0,55.95982,1,0,P = 0.0743,,,,,,,,,,,,,,,,,,,
1,0,0,39.49992876,1,0,,,,,,,,,,,,,,,Y distance,,,,,
1,0,0,46.66761,1,0,,,,,,,,,,,,,,,0.5-,0.496,88.784,,2.813,Chi squared equals 2.813 with 2 degrees of freedom.
1,0,0,34.41709,1,0,,,,,,,,,,,,,,,0.5--1.5,0.441,78.939,,0.245,The two-tailed P value equals 0.2450
1,0,0,46.73073,1,0,,,,,,,,,,,,,,,1.5+,0.063,11.277,,normally distributed,
1,0,0,26.0637,1,0,,,,,,,,,,,,,,,,1,179,,,
1,0,0,27.14207,1,0,,,,,,,,,,,,,,,,,,,,
1,0,0,34.41751,1,0,,,,,,,,,,,,,,,y acc,,,,,
1,0,0,113.0818,1,0,,,,,,,,,,,,,,,0.5-,0.4522,80.9438,,0.085,Chi squared equals 0.085 with 1 degrees of freedom.
0,1,1,129.8097,0,0,,,,,,,,,,,,,,,0.5+,0.5478,98.0562,,0.7704,The two-tailed P value equals 0.7704
0,1,1,52.23824,0,0,,,,,,,,,,,,,,,,1,179,,normally distributed,
0,1,1,56.16487,0,0,,,,,,,,,,,,,,,,,,,,
1,0,0,30.87604,1,0,,,,,,,,,,,,,,,,,,,,
0,3,0,74.46134,1,3,,,,,,,,,,,,,,,time,,,,,
1,0,0,30.24886,1,0,,,,,,,,,,,,,,,P-value,7.31E-09,NOT n.d.,,https://www.statskingdom.com/shapiro-wilk-test-calculator.html,
0,1,1,35.34407,0,0,,,,,,,,,,,,,,,W,0.9122,,,,
0,2,1,55.75554,0,1,,,,,,,,,,,,,,,,,,,,
0,1,1,27.98713,0,0,,,,,,,,,,,,,,,Chi squared equals 18.824 with 6 degrees of freedom.,,,,,
0,2,1,66.8844,0,1,,,,,,,,,,,,,,,The two-tailed P value equals 0.0045,,,,,
0,1,1,23.55767,0,0,,,,,,,,,,,,,,,NOT n.d.,,,,,
1,0,0,52.66852,1,0,,,,,,,,,,,,,,,,,,,,
1,0,0,36.73399,1,0,,,,,,,,,,,,,,,,,,,,
1,0,0,28.60915,1,0,,,,,,,,,,,,,,,,,,,,
1,0,0,39.94378,1,0,,,,,,,,,,,,,,,,,,,,
0,2,2,58.34591,0,0,,,,,,,,,,,,,,,,,,,,
1,0,0,42.99475,1,0,,,,,,,,,,,,,,,,,,,,
0,1,1,30.01946,0,0,,,,,,,,,,,,,,,,,,,,
0,1,1,23.02481,0,0,,,,,,,,,,,,,,,,,,,,
0,1,1,47.54172,0,0,,,,,,,,,,,,,,,,,,,,
1,0,0,28.00605,1,0,,,,,,,,,,,,,,,,,,,,
1,0,0,65.33749,1,0,,,,,,,,,,,,,,,,,,,,
1,0,0,35.72511,1,0,,,,,,,,,,,,,,,,,,,,
0,1,1,20.196,0,0,,,,,,,,,,,,,,,,,,,,
0,2,1,22.14612,0,1,,,,,,,,,,,,,,,,,,,,
1,0,0,16.11202,1,0,,,,,,,,,,,,,,,,,,,,
0,1,1,27.4397,0,0,,,,,,,,,,,,,,,,,,,,
1,0,0,16.41033,1,0,,,,,,,,,,,,,,,,,,,,
1,0,0,13.54673,1,0,,,,,,,,,,,,,,,,,,,,
0,1,2,16.51251,0,-1,,,,,,,,,,,,,,,,,,,,
0,1,0,55.05875,1,1,,,,,,,,,,,,,,,,,,,,
1,0,0,25.70235,1,0,,,,,,,,,,,,,,,,,,,,
1,0,0,17.75895,1,0,,,,,,,,,,,,,,,,,,,,
1,0,0,24.40875,1,0,,,,,,,,,,,,,,,,,,,,
1,0,0,24.46503,1,0,,,,,,,,,,,,,,,,,,,,
1,0,0,33.33775,1,0,,,,,,,,,,,,,,,,,,,,
0,1,1,17.53433,0,0,,,,,,,,,,,,,,,,,,,,
0,1,0,38.47768,1,1,,,,,,,,,,,,,,,,,,,,
1,0,0,24.64112,1,0,,,,,,,,,,,,,,,,,,,,
0,1,1,22.17127,0,0,,,,,,,,,,,,,,,,,,,,
0,1,1,43.68087,0,0,,,,,,,,,,,,,,,,,,,,
0,1,1,25.27382,0,0,,,,,,,,,,,,,,,,,,,,
1,0,0,20.68714,1,0,,,,,,,,,,,,,,,,,,,,
0,1,1,53.37264,0,0,,,,,,,,,,,,,,,,,,,,
0,1,1,44.07761,0,0,,,,,,,,,,,,,,,,,,,,
1,0,0,80.64698,1,0,,,,,,,,,,,,,,,,,,,,
1,0,0,60.36709,1,0,,,,,,,,,,,,,,,,,,,,
1,0,0,27.93769,1,0,,,,,,,,,,,,,,,,,,,,
0,2,2,70.02061,0,0,,,,,,,,,,,,,,,,,,,,
1,0,0,26.58115,1,0,,,,,,,,,,,,,,,,,,,,
1,0,0,55.21983,1,0,,,,,,,,,,,,,,,,,,,,
0,1,1,60.50201,0,0,,,,,,,,,,,,,,,,,,,,
1,0,0,33.20252,1,0,,,,,,,,,,,,,,,,,,,,
1,0,0,32.76131,1,0,,,,,,,,,,,,,,,,,,,,
0,2,1,21.46823,0,1,,,,,,,,,,,,,,,,,,,,
1,0,0,18.98145,1,0,,,,,,,,,,,,,,,,,,,,
0,2,1,37.16485,0,1,,,,,,,,,,,,,,,,,,,,
0,2,1,18.84701,0,1,,,,,,,,,,,,,,,,,,,,
1,0,0,26.21569,1,0,,,,,,,,,,,,,,,,,,,,
0,3,2,57.04331,0,1,,,,,,,,,,,,,,,,,,,,
0,2,0,17.84276,1,2,,,,,,,,,,,,,,,,,,,,
0,1,1,15.40443,0,0,,,,,,,,,,,,,,,,,,,,
0,1,0,23.6385,1,1,,,,,,,,,,,,,,,,,,,,
0,1,0,17.69388,1,1,,,,,,,,,,,,,,,,,,,,
1,0,0,19.47859,1,0,,,,,,,,,,,,,,,,,,,,
1,0,0,20.98777,1,0,,,,,,,,,,,,,,,,,,,,
1,0,0,18.752,1,0,,,,,,,,,,,,,,,,,,,,
1,0,0,21.59239,1,0,,,,,,,,,,,,,,,,,,,,
0,1,1,19.26365,0,0,,,,,,,,,,,,,,,,,,,,
0,1,1,17.45618,0,0,,,,,,,,,,,,,,,,,,,,
1,0,0,21.3588,1,0,,,,,,,,,,,,,,,,,,,,
0,2,1,21.47124,0,1,,,,,,,,,,,,,,,,,,,,
1,0,0,32.81108,1,0,,,,,,,,,,,,,,,,,,,,
0,4,2,30.86953,0,2,,,,,,,,,,,,,,,,,,,,
0,1,0,30.66866,1,1,,,,,,,,,,,,,,,,,,,,
0,2,1,22.9092,0,1,,,,,,,,,,,,,,,,,,,,
0,1,0,22.66585,1,1,,,,,,,,,,,,,,,,,,,,
1,0,0,16.00215,1,0,,,,,,,,,,,,,,,,,,,,
0,2,1,39.61274,0,1,,,,,,,,,,,,,,,,,,,,
0,1,0,28.11534,1,1,,,,,,,,,,,,,,,,,,,,
0,2,1,23.05075,0,1,,,,,,,,,,,,,,,,,,,,
0,3,1,14.59058,0,2,,,,,,,,,,,,,,,,,,,,
0,5,4,85.58211,0,1,,,,,,,,,,,,,,,,,,,,
1,0,0,58.00836,1,0,,,,,,,,,,,,,,,,,,,,
0,1,1,37.77288,0,0,,,,,,,,,,,,,,,,,,,,
0,2,1,38.16194,0,1,,,,,,,,,,,,,,,,,,,,
1,0,0,34.60323,1,0,,,,,,,,,,,,,,,,,,,,
1,0,0,28.31565,1,0,,,,,,,,,,,,,,,,,,,,
1,0,0,53.74243,1,0,,,,,,,,,,,,,,,,,,,,
0,1,1,75.25621,0,0,,,,,,,,,,,,,,,,,,,,
1,0,0,40.81379,1,0,,,,,,,,,,,,,,,,,,,,
1,0,0,60.00057,1,0,,,,,,,,,,,,,,,,,,,,
0,2,1,68.01719,0,1,,,,,,,,,,,,,,,,,,,,
0,1,1,29.42137,0,0,,,,,,,,,,,,,,,,,,,,
0,2,1,67.68934,0,1,,,,,,,,,,,,,,,,,,,,
1,0,0,43.49487,1,0,,,,,,,,,,,,,,,,,,,,
0,2,1,52.2098,0,1,,,,,,,,,,,,,,,,,,,,
0,1,1,51.23038,0,0,,,,,,,,,,,,,,,,,,,,
0,1,1,56.52034,0,0,,,,,,,,,,,,,,,,,,,,
0,2,1,60.36742,0,1,,,,,,,,,,,,,,,,,,,,
1,0,0,57.8546,1,0,,,,,,,,,,,,,,,,,,,,
0,1,1,78.19263,0,0,,,,,,,,,,,,,,,,,,,,
0,2,2,44.32014,0,0,,,,,,,,,,,,,,,,,,,,
0,1,1,45.29922,0,0,,,,,,,,,,,,,,,,,,,,
1,0,0,34.70079,1,0,,,,,,,,,,,,,,,,,,,,
0,1,0,34.59092,1,1,,,,,,,,,,,,,,,,,,,,
0,1,1,40.63033,0,0,,,,,,,,,,,,,,,,,,,,
1,0,0,56.61059,1,0,,,,,,,,,,,,,,,,,,,,
0,1,1,39.59105,0,0,,,,,,,,,,,,,,,,,,,,
0,1,1,47.11525,0,0,,,,,,,,,,,,,,,,,,,,
0,1,1,46.13023,0,0,,,,,,,,,,,,,,,,,,,,
0,3,2,35.58359,0,1,,,,,,,,,,,,,,,,,,,,
0,1,1,48.74833,0,0,,,,,,,,,,,,,,,,,,,,
0,1,1,51.51259,0,0,,,,,,,,,,,,,,,,,,,,
1,0,0,36.06547,1,0,,,,,,,,,,,,,,,,,,,,
0,2,1,46.63506,0,1,,,,,,,,,,,,,,,,,,,,
1,0,0,31.22283,1,0,,,,,,,,,,,,,,,,,,,,
0,2,1,29.82411,0,1,,,,,,,,,,,,,,,,,,,,
0,2,2,54.20914,0,0,,,,,,,,,,,,,,,,,,,,
1,0,0,40.29156,1,0,,,,,,,,,,,,,,,,,,,,
1,0,0,51.07233,1,0,,,,,,,,,,,,,,,,,,,,
1,0,0,38.56298,1,0,,,,,,,,,,,,,,,,,,,,
1,0,0,28.7374,1,0,,,,,,,,,,,,,,,,,,,,
1,0,0,29.15492,1,0,,,,,,,,,,,,,,,,,,,,
0,1,0,26.85213,1,1,,,,,,,,,,,,,,,,,,,,
1,0,0,26.95406,1,0,,,,,,,,,,,,,,,,,,,,
1,0,0,59.0719,1,0,,,,,,,,,,,,,,,,,,,,
1,0,0,28.57086,1,0,,,,,,,,,,,,,,,,,,,,
1,0,0,38.58901,1,0,,,,,,,,,,,,,,,,,,,,
0,1,0,47.62367,1,1,,,,,,,,,,,,,,,,,,,,
0,1,0,36.67859,1,1,,,,,,,,,,,,,,,,,,,,
1,0,0,36.79235,1,0,,,,,,,,,,,,,,,,,,,,
1,0,0,24.40029,1,0,,,,,,,,,,,,,,,,,,,,
1,0,0,17.78893,1,0,,,,,,,,,,,,,,,,,,,,
0,1,1,25.72179,0,0,,,,,,,,,,,,,,,,,,,,
0,1,1,12.83948,0,0,,,,,,,,,,,,,,,,,,,,
1,0,0,15.48966,1,0,,,,,,,,,,,,,,,,,,,,
1,0,0,10.62976,1,0,,,,,,,,,,,,,,,,,,,,
0,1,1,10.74796,0,0,,,,,,,,,,,,,,,,,,,,
0,1,1,47.39375,0,0,,,,,,,,,,,,,,,,,,,,
1,0,0,18.72679,1,0,,,,,,,,,,,,,,,,,,,,
0,1,1,21.1797,0,0,,,,,,,,,,,,,,,,,,,,
,,M,39.49992876,,0.2458100559,,,,,,,,,,,,,,,,,,,,
,,SD,19.34389053,,0.5148598453,,,,,,,,,,,,,,,,,,,,
,,,,,exp p value,exp value,,,,,,Chi squared equals 18.824 with 6 degrees of freedom.,,,,,,,,,,,,,
,,<20,23,,0.1562,27.9598,,,,,,The two-tailed P value equals 0.0045,,,,,,,,,,,,,
,,20-30,45,,0.1559,27.9061,,,,,,NOT n.d.,,,,,,,,,,,,,
,,30-40,41,,0.1999,35.7821,,,,,,,,,,,,,,,,,,,
,,40-50,20,,0.1934,34.6186,,,,,,,,,,,,,,,,,,,
,,50-60,26,,0.15,26.85,,,,,,,,,,,,,,,,,,,
,,60-70,13,,0.0875,15.6625,,,,,,,,,,,,,,,,,,,
,,70+,11,,0.0571,10.2209,,,,,,,,,,,,,,,,,,,
,,total = ,179,,1,179,,,,,,,,,,,,,,,,,,,