mentalTLX,physicalTLX,temporalTLX,performanceTLX,effortTLX,frustrationTLX,VGDSmeQ1,VGDSmeQ2,VGDSmeQ3,VGDSmeQ4,VGDSmeQ5,VGDSmeQ6,VGDSmeQ7,VGDSphQ1,VGDSphQ2,VGDSphQ3,VGDSphQ4,VGDScoQ1,VGDScoQ2,VGDScoQ3,VGDScoQ4
2,1,1,2,2,2,2,2,2,3,2,1,6,5,5,1,1,6,7,6,2
2,1,1,2,1,1,1,1,1,7,1,1,6,1,1,1,1,5,3,6,1
6,3,4,5,5,2,3,2,3,4,3,2,5,1,2,1,2,5,5,5,2
1,1,2,2,1,1,7,1,1,1,4,2,6,1,1,1,1,7,7,7,1
7,5,2,2,6,1,6,5,5,3,5,5,6,4,1,2,3,4,6,6,2
5,2,1,3,4,2,4,4,3,6,4,2,3,1,1,1,1,3,2,4,1
7,6,2,6,4,3,6,5,5,4,5,4,4,1,1,1,1,7,7,7,1
3,3,3,2,6,2,2,2,2,6,1,1,5,1,1,1,1,5,4,5,2
6,5,5,6,6,6,3,3,3,6,3,4,3,2,3,2,3,5,6,6,4
2,3,2,2,3,1,5,5,3,2,3,5,6,5,4,4,4,3,3,3,5
6,6,6,2,6,7,6,6,7,2,7,7,3,6,6,6,6,2,2,2,7
1,2,2,6,2,1,4,2,2,6,2,2,5,2,2,2,2,6,5,6,2
5,1,1,2,5,3,6,7,5,1,5,2,7,2,4,4,2,3,2,3,3
3,2,3,2,3,3,5,4,4,3,4,4,5,2,2,2,2,3,2,3,3
3,2,2,3,4,3,6,5,5,2,5,5,6,3,4,4,5,4,3,3,6
5,2,3,3,5,2,3,3,3,3,2,3,5,1,2,1,2,6,6,5,3