HELPFUL,INTERESTING,PLEASANT,EASY,RELATABLE,MATCH,DIFFICULT,FUN,BORING,CONFUSING,REPRESENTED,BUZZ,,
7,7,6,7,7,7,7,7,1,1,7,7,HELPFUL,
6,2,2,6,7,7,2,2,5,2,6,6,,
7,7,7,7,7,7,1,6,2,2,7,7,,
7,6,5,7,7,7,2,5,2,5,6,7,,
5,4,5,5,6,6,5,4,4,5,5,5,,
6,6,3,6,6,6,5,5,2,5,5,6,,
7,7,7,7,7,7,1,7,1,2,7,7,,
5,3,3,5,4,5,3,3,4,3,5,5,,
3,4,3,3,4,4,3,3,3,2,2,3,,
6,4,1,3,4,5,4,1,5,4,3,6,,
7,7,5,6,7,7,1,7,2,1,7,7,,-
7,7,5,6,7,7,2,6,1,2,6,7,,
5,4,4,5,5,5,3,4,4,3,5,5,,
5,3,1,5,6,5,3,2,2,3,5,5,,
5,6,5,6,7,5,3,6,1,2,5,5,,
7,7,5,6,7,6,4,3,1,4,5,7,,
5,2,2,3,5,3,6,2,6,5,4,5,,
,,,,,,,,,,,7,INTERESTING,
,,,,,,,,,,,2,,
,,,,,,,,,,,7,,
,,,,,,,,,,,6,,
,,,,,,,,,,,4,,
,,,,,,,,,,,6,,
,,,,,,,,,,,7,,
,,,,,,,,,,,3,,
,,,,,,,,,,,4,,
,,,,,,,,,,,4,,
,,,,,,,,,,,7,,
,,,,,,,,,,,7,,
,,,,,,,,,,,4,,
,,,,,,,,,,,3,,
,,,,,,,,,,,6,,
,,,,,,,,,,,7,,
,,,,,,,,,,,2,,
,,,,,,,,,,,6,PLEASANT,
,,,,,,,,,,,2,,
,,,,,,,,,,,7,,
,,,,,,,,,,,5,,
,,,,,,,,,,,5,,
,,,,,,,,,,,3,,
,,,,,,,,,,,7,,
,,,,,,,,,,,3,,
,,,,,,,,,,,3,,
,,,,,,,,,,,1,,
,,,,,,,,,,,5,,
,,,,,,,,,,,5,,
,,,,,,,,,,,4,,
,,,,,,,,,,,1,,
,,,,,,,,,,,5,,
,,,,,,,,,,,5,,
,,,,,,,,,,,2,,
,,,,,,,,,,,7,EASY,
,,,,,,,,,,,6,,
,,,,,,,,,,,7,,
,,,,,,,,,,,7,,
,,,,,,,,,,,5,,
,,,,,,,,,,,6,,
,,,,,,,,,,,7,,
,,,,,,,,,,,5,,
,,,,,,,,,,,3,,
,,,,,,,,,,,3,,
,,,,,,,,,,,6,,
,,,,,,,,,,,6,,
,,,,,,,,,,,5,,
,,,,,,,,,,,5,,
,,,,,,,,,,,6,,
,,,,,,,,,,,6,,
,,,,,,,,,,,3,,
,,,,,,,,,,,7,RELATABLE,
,,,,,,,,,,,7,,
,,,,,,,,,,,7,,
,,,,,,,,,,,7,,
,,,,,,,,,,,6,,
,,,,,,,,,,,6,,
,,,,,,,,,,,7,,
,,,,,,,,,,,4,,
,,,,,,,,,,,4,,
,,,,,,,,,,,4,,
,,,,,,,,,,,7,,
,,,,,,,,,,,7,,
,,,,,,,,,,,5,,
,,,,,,,,,,,6,,
,,,,,,,,,,,7,,
,,,,,,,,,,,7,,
,,,,,,,,,,,5,,
,,,,,,,,,,,7,MATCH,
,,,,,,,,,,,7,,
,,,,,,,,,,,7,,
,,,,,,,,,,,7,,
,,,,,,,,,,,6,,
,,,,,,,,,,,6,,
,,,,,,,,,,,7,,
,,,,,,,,,,,5,,
,,,,,,,,,,,4,,
,,,,,,,,,,,5,,
,,,,,,,,,,,7,,
,,,,,,,,,,,7,,
,,,,,,,,,,,5,,
,,,,,,,,,,,5,,
,,,,,,,,,,,5,,
,,,,,,,,,,,6,,
,,,,,,,,,,,3,,
,,,,,,,,,,,1,DIFFICULT,7
,,,,,,,,,,,6,,2
,,,,,,,,,,,7,,1
,,,,,,,,,,,6,,2
,,,,,,,,,,,3,,5
,,,,,,,,,,,3,,5
,,,,,,,,,,,7,,1
,,,,,,,,,,,5,,3
,,,,,,,,,,,5,,3
,,,,,,,,,,,4,,4
,,,,,,,,,,,7,,1
,,,,,,,,,,,6,,2
,,,,,,,,,,,5,,3
,,,,,,,,,,,5,,3
,,,,,,,,,,,5,,3
,,,,,,,,,,,4,,4
,,,,,,,,,,,2,,6
,,,,,,,,,,,7,FUN,
,,,,,,,,,,,2,,
,,,,,,,,,,,6,,
,,,,,,,,,,,5,,
,,,,,,,,,,,4,,
,,,,,,,,,,,5,,
,,,,,,,,,,,7,,
,,,,,,,,,,,3,,
,,,,,,,,,,,3,,
,,,,,,,,,,,1,,
,,,,,,,,,,,7,,
,,,,,,,,,,,6,,
,,,,,,,,,,,4,,
,,,,,,,,,,,2,,
,,,,,,,,,,,6,,
,,,,,,,,,,,3,,
,,,,,,,,,,,2,,
,,,,,,,,,,,7,BORING,1
,,,,,,,,,,,3,,5
,,,,,,,,,,,6,,2
,,,,,,,,,,,6,,2
,,,,,,,,,,,4,,4
,,,,,,,,,,,6,,2
,,,,,,,,,,,7,,1
,,,,,,,,,,,4,,4
,,,,,,,,,,,5,,3
,,,,,,,,,,,3,,5
,,,,,,,,,,,6,,2
,,,,,,,,,,,7,,1
,,,,,,,,,,,4,,4
,,,,,,,,,,,6,,2
,,,,,,,,,,,7,,1
,,,,,,,,,,,7,,1
,,,,,,,,,,,2,,6
,,,,,,,,,,,7,CONFUSING,1
,,,,,,,,,,,6,,2
,,,,,,,,,,,6,,2
,,,,,,,,,,,3,,5
,,,,,,,,,,,3,,5
,,,,,,,,,,,3,,5
,,,,,,,,,,,6,,2
,,,,,,,,,,,5,,3
,,,,,,,,,,,6,,2
,,,,,,,,,,,4,,4
,,,,,,,,,,,7,,1
,,,,,,,,,,,6,,2
,,,,,,,,,,,5,,3
,,,,,,,,,,,5,,3
,,,,,,,,,,,6,,2
,,,,,,,,,,,4,,4
,,,,,,,,,,,3,,5
,,,,,,,,,,,7,REPRESENTED,
,,,,,,,,,,,6,,
,,,,,,,,,,,7,,
,,,,,,,,,,,6,,
,,,,,,,,,,,5,,
,,,,,,,,,,,5,,
,,,,,,,,,,,7,,
,,,,,,,,,,,5,,
,,,,,,,,,,,2,,
,,,,,,,,,,,3,,
,,,,,,,,,,,7,,
,,,,,,,,,,,6,,
,,,,,,,,,,,5,,
,,,,,,,,,,,5,,
,,,,,,,,,,,5,,
,,,,,,,,,,,5,,
,,,,,,,,,,,4,,
,,,,,,,,,,,5.181818182,,