correct,dist,ydist,time,yacc,h-dist,,,,,,,,,,,,,,,,,,,,,
1,0,0,37.868,1,0,,,,,,,,,,,,,,,,,,,,,
0,1,1,43.1692,0,0,,,,,,,,,,,,,,,,,,,,,
1,0,0,53.60686,1,0,,,,,,,,,,,,,,,,,,,,,
1,0,0,43.6086,1,0,,,,,,,,,,,,,,,,,,,,,
1,0,0,49.0433,1,0,,,,,,,,,,,,,,,,,,,,,
0,3,2,57.75835,0,1,,,,,,,,,,,,,,,,,,,,,
0,1,1,53.9115,0,0,,,,,,,,,,,,,,,,,,,,,
1,0,0,71.44844,1,0,,,,,,,,,,0.4555555556,accuracy,,,,,,,,,,
0,1,1,36.0952,0,0,,,,,,,,,,0.9277777778,avg dist,180,,0.4555555556,ACC,,,,,,
0,1,1,29.41899,0,0,,,,,,,,,,0.6833333333,avg y dist,180,,0.5111111111,ACC y,,,,,,
0,1,1,128.8749,0,0,,,,,,,,,,57.09205121,avg time,190,,,,,,,,,
0,4,2,177.899,0,2,,,,,,,,,,0.5111111111,Yacc,,,,,,,,,,
0,2,2,93.66245,0,0,,,,,,,,,,,,,2D,Y,,,,,,,
0,1,1,46.09778,0,0,,,,,,,,,,,,distance in cm,45.46111111,33.48333333,,,,,,,
1,0,0,46.85084,1,0,,,,,,,,,,,,,,,,,,,,,
1,0,0,41.54374,1,0,,,,,,,,,,correct,dist,ydist,time,yacc,,,,,,,
0,1,1,27.06239,0,0,,,,,,,,,avg,0.4555555556,0.9277777778,0.6833333333,57.09205121,0.5111111111,,,,,,,
0,3,2,35.97697,0,1,,,,,,,,,stdev,0.499409956,1.148380232,0.8354906898,35.96818416,0.5012708864,,,,,,,
0,2,2,92.64777,0,0,,,,,,,,,,,,,,,,exp p value,exp. value,,https://www.mathportal.org/calculators/statistics-calculator/normal-distribution-calculator.php,,
0,1,1,52.23037,0,0,,,,,,,,,0,98,82,92,,88,,,,,https://www.graphpad.com/quickcalcs/chisquared2/,,
0,3,2,71.64816,0,1,,,,,,,,,1,82,58,60,,92,,,,,,,
0,2,2,46.69846,0,0,,,,,,,,,2,,21,22,,,correctness,,,,,,
0,1,1,91.49578,0,0,,,,,,,,,3,,13,5,,,0.5-,0.5359,101.821,,,0.053,Chi squared equals 0.053 with 1 degrees of freedom.
0,1,1,102.8041,0,0,,,,,,,,,4,,2,1,,,0.5+,0.4641,88.179,,,0.8182,The two-tailed P value equals 0.8182
0,2,2,75.18015,0,0,,,,,,,,,5,,4,0,,,,1,190,,,nd,
1,0,0,32.36009,1,0,,,,,,,,,6,,0,0,,,,,,,,,
0,3,3,202.6075,0,0,,,,,,,,,,,,,,,distance,,,,,,
0,1,1,132.5304,0,0,,,,,,,,,,,,,,,0.5-,0.3557,64.026,,,9.488,Chi squared equals 9.488 with 2 degrees of freedom.
0,3,2,44.82458,0,1,,,,,,,,,,,,,,,0.5--1.5,0.3358,60.444,,,0.0087,The two-tailed P value equals 0.0087
1,0,0,41.88489,1,0,,,,,,,,,,,,,,,1.5+,0.3085,55.53,,,nnd,
0,2,1,55.81863,0,1,,,,,,,,,,,,,,,,1,180,,,,
0,1,1,58.18984,0,0,,,,,,,,,,,,,,,,,,,,,
1,0,0,77.51778,1,0,,,,,,,,,,,,,,,Y distance,,,,,,
0,1,1,38.76132,0,0,,,,,,,,,,,,,,,0.5-,0.4129,74.322,,,7.737,Chi squared equals 7.737 with 2 degrees of freedom.
0,2,1,42.23882,0,1,,,,,,,,,,,,,,,0.5--1.5,0.4236,76.248,,,0.0209,The two-tailed P value equals 0.0209
0,1,1,58.88634,0,0,,,,,,,,,,,,,,,1.5+,0.1635,29.43,,,nnd,
0,1,1,52.03962,0,0,,,,,,,,,,,,,,,,1,180,,,,
0,2,2,21.46856,0,0,,,,,,,,,,,,,,,,,,,,,
1,0,0,42.0298,1,0,,,,,,,,,,,,,,,y acc,,,,,,
0,1,1,35.13314,0,0,,,,,,,,,,,,,,,0.5-,0.492,88.56,,,0.007,Chi squared equals 0.007 with 1 degrees of freedom.
1,0,0,82.68753,1,0,,,,,,,,,,,,,,,0.5+,0.508,91.44,,,0.9335,The two-tailed P value equals 0.9335
1,0,0,48.46541,1,0,,,,,,,,,,,,,,,,1,180,,,nd,
1,0,0,32.48103,1,0,,,,,,,,,,,,,,,,,,,,,
0,1,1,40.04898,0,0,,,,,,,,,,,,,,,time,,,,,,
1,0,0,41.44103,1,0,,,,,,,,,,,,,,,P-value,1.73E-12,nnd,https://www.statskingdom.com/shapiro-wilk-test-calculator.html,,,
0,1,1,33.18591,0,0,,,,,,,,,,,,,,,W,0.8464,,,,,
0,1,1,44.02691,0,0,,,,,,,,,,,,,,,,,,,,,
0,1,1,59.73993,0,0,,,,,,,,,,,,,,,Chi squared equals 71.506 with 6 degrees of freedom.,,,,,,
1,0,0,28.6663,1,0,,,,,,,,,,,,,,,The two-tailed P value is less than 0.0001,,,,,,
1,0,0,48.02647,1,0,,,,,,,,,,,,,,,NOT n.d.,,,,,,
0,1,1,50.88383,0,0,,,,,,,,,,,,,,,,,,,,,
1,0,0,58.81251,1,0,,,,,,,,,,,,,,,,,,,,,
0,1,1,91.68917,0,0,,,,,,,,,,,,,,,,,,,,,
1,0,0,46.05337,1,0,,,,,,,,,,,,,,,,,,,,,
1,0,0,23.47306,1,0,,,,,,,,,,,,,,,,,,,,,
1,0,0,42.19057,1,0,,,,,,,,,,,,,,,,,,,,,
1,0,0,30.33241,1,0,,,,,,,,,,,,,,,,,,,,,
1,0,0,68.60136,1,0,,,,,,,,,,,,,,,,,,,,,
1,0,0,51.14163,1,0,,,,,,,,,,,,,,,,,,,,,
1,0,0,51.20265,1,0,,,,,,,,,,,,,,,,,,,,,
1,0,0,21.31619,1,0,,,,,,,,,,,,,,,,,,,,,
0,1,1,34.93036,0,0,,,,,,,,,,,,,,,,,,,,,
0,1,0,43.88754,1,1,,,,,,,,,,,,,,,,,,,,,
0,1,1,31.4244,0,0,,,,,,,,,,,,,,,,,,,,,
0,1,1,31.43054,0,0,,,,,,,,,,,,,,,,,,,,,
0,1,1,31.13704,0,0,,,,,,,,,,,,,,,,,,,,,
0,1,2,39.13768,0,-1,,,,,,,,,,,,,,,,,,,,,
1,0,0,21.96176,1,0,,,,,,,,,,,,,,,,,,,,,
0,1,0,32.6249,1,1,,,,,,,,,,,,,,,,,,,,,
1,0,0,34.51409,1,0,,,,,,,,,,,,,,,,,,,,,
1,0,0,46.54214,1,0,,,,,,,,,,,,,,,,,,,,,
1,0,0,41.33551,1,0,,,,,,,,,,,,,,,,,,,,,
1,0,0,31.71953,1,0,,,,,,,,,,,,,,,,,,,,,
1,0,0,37.80732,1,0,,,,,,,,,,,,,,,,,,,,,
1,0,0,30.48003,1,0,,,,,,,,,,,,,,,,,,,,,
1,0,0,43.58492,1,0,,,,,,,,,,,,,,,,,,,,,
1,0,0,22.39119,1,0,,,,,,,,,,,,,,,,,,,,,
1,0,0,30.08961,1,0,,,,,,,,,,,,,,,,,,,,,
1,0,0,23.50959,1,0,,,,,,,,,,,,,,,,,,,,,
1,0,0,40.59899,1,0,,,,,,,,,,,,,,,,,,,,,
1,0,0,97.08717,1,0,,,,,,,,,,,,,,,,,,,,,
0,1,1,107.2437,0,0,,,,,,,,,,,,,,,,,,,,,
1,0,0,120.4008,1,0,,,,,,,,,,,,,,,,,,,,,
1,0,0,146.7864,1,0,,,,,,,,,,,,,,,,,,,,,
0,1,1,198.8976,0,0,,,,,,,,,,,,,,,,,,,,,
0,5,4,179.0776,0,1,,,,,,,,,,,,,,,,,,,,,
1,0,0,62.16539,1,0,,,,,,,,,,,,,,,,,,,,,
0,1,1,61.60056,0,0,,,,,,,,,,,,,,,,,,,,,
0,1,1,86.66349,0,0,,,,,,,,,,,,,,,,,,,,,
1,0,0,110.2848,1,0,,,,,,,,,,,,,,,,,,,,,
0,4,3,65.73946,0,1,,,,,,,,,,,,,,,,,,,,,
0,3,2,43.86675,0,1,,,,,,,,,,,,,,,,,,,,,
0,3,2,40.66251,0,1,,,,,,,,,,,,,,,,,,,,,
0,1,1,58.27332,0,0,,,,,,,,,,,,,,,,,,,,,
1,0,0,57.74790536,1,0,,,,,,,,,,,,,,,,,,,,,
1,0,0,57.10223,1,0,,,,,,,,,,,,,,,,,,,,,
0,2,1,60.58854,0,1,,,,,,,,,,,,,,,,,,,,,
0,2,2,44.94631,0,0,,,,,,,,,,,,,,,,,,,,,
1,0,0,45.19579,1,0,,,,,,,,,,,,,,,,,,,,,
1,0,0,23.73322,1,0,,,,,,,,,,,,,,,,,,,,,
0,1,1,20.96423,0,0,,,,,,,,,,,,,,,,,,,,,
1,0,0,20.37485,1,0,,,,,,,,,,,,,,,,,,,,,
1,0,0,26.5138,1,0,,,,,,,,,,,,,,,,,,,,,
1,0,0,25.1224,1,0,,,,,,,,,,,,,,,,,,,,,
1,0,0,34.48464,1,0,,,,,,,,,,,,,,,,,,,,,
1,0,0,24.68041,1,0,,,,,,,,,,,,,,,,,,,,,
1,0,0,31.68151,1,0,,,,,,,,,,,,,,,,,,,,,
1,0,0,25.30266,1,0,,,,,,,,,,,,,,,,,,,,,
1,0,0,13.63462,1,0,,,,,,,,,,,,,,,,,,,,,
1,0,0,20.78076,1,0,,,,,,,,,,,,,,,,,,,,,
1,0,0,35.44304,1,0,,,,,,,,,,,,,,,,,,,,,
0,1,0,26.3068,1,1,,,,,,,,,,,,,,,,,,,,,
1,0,0,21.45226,1,0,,,,,,,,,,,,,,,,,,,,,
0,1,1,20.45286,0,0,,,,,,,,,,,,,,,,,,,,,
0,2,1,36.31227,0,1,,,,,,,,,,,,,,,,,,,,,
1,0,0,25.13676,1,0,,,,,,,,,,,,,,,,,,,,,
0,1,1,28.54197,0,0,,,,,,,,,,,,,,,,,,,,,
0,5,2,20.38172,0,3,,,,,,,,,,,,,,,,,,,,,
0,1,0,52.94948,1,1,,,,,,,,,,,,,,,,,,,,,
0,1,0,32.94819,1,1,,,,,,,,,,,,,,,,,,,,,
1,0,0,68.66031,1,0,,,,,,,,,,,,,,,,,,,,,
1,0,0,106.5573,1,0,,,,,,,,,,,,,,,,,,,,,
0,3,3,76.96207,0,0,,,,,,,,,,,,,,,,,,,,,
1,0,0,62.65915,1,0,,,,,,,,,,,,,,,,,,,,,
0,1,1,88.90919,0,0,,,,,,,,,,,,,,,,,,,,,
0,2,1,67.72377,0,1,,,,,,,,,,,,,,,,,,,,,
1,0,0,119.9186,1,0,,,,,,,,,,,,,,,,,,,,,
0,2,1,126.0883,0,1,,,,,,,,,,,,,,,,,,,,,
0,2,1,69.87856,0,1,,,,,,,,,,,,,,,,,,,,,
0,1,1,65.19075,0,0,,,,,,,,,,,,,,,,,,,,,
1,0,0,115.6655,1,0,,,,,,,,,,,,,,,,,,,,,
0,1,1,85.88284,0,0,,,,,,,,,,,,,,,,,,,,,
0,1,1,56.53857,0,0,,,,,,,,,,,,,,,,,,,,,
1,0,0,102.6359,1,0,,,,,,,,,,,,,,,,,,,,,
0,1,1,43.00784,0,0,,,,,,,,,,,,,,,,,,,,,
0,1,1,104.4598,0,0,,,,,,,,,,,,,,,,,,,,,
0,1,0,56.9775,1,1,,,,,,,,,,,,,,,,,,,,,
0,2,1,27.38417,0,1,,,,,,,,,,,,,,,,,,,,,
0,1,1,105.8936,0,0,,,,,,,,,,,,,,,,,,,,,
0,2,1,123.4836,0,1,,,,,,,,,,,,,,,,,,,,,
0,3,2,83.81476,0,1,,,,,,,,,,,,,,,,,,,,,
0,5,3,84.58046,0,2,,,,,,,,,,,,,,,,,,,,,
0,1,0,66.92953,1,1,,,,,,,,,,,,,,,,,,,,,
0,3,2,46.37247,0,1,,,,,,,,,,,,,,,,,,,,,
1,0,0,62.91794,1,0,,,,,,,,,,,,,,,,,,,,,
0,1,0,52.25712,1,1,,,,,,,,,,,,,,,,,,,,,
0,3,1,42.90745,0,2,,,,,,,,,,,,,,,,,,,,,
1,0,0,79.17539,1,0,,,,,,,,,,,,,,,,,,,,,
0,2,1,79.0599,0,1,,,,,,,,,,,,,,,,,,,,,
0,5,3,75.94634,0,2,,,,,,,,,,,,,,,,,,,,,
0,1,1,83.17458,0,0,,,,,,,,,,,,,,,,,,,,,
1,0,0,103.6543,1,0,,,,,,,,,,,,,,,,,,,,,
0,2,2,83.23446,0,0,,,,,,,,,,,,,,,,,,,,,
0,1,1,62.70205,0,0,,,,,,,,,,,,,,,,,,,,,
0,3,2,57.74067,0,1,,,,,,,,,,,,,,,,,,,,,
0,2,2,161.2215,0,0,,,,,,,,,,,,,,,,,,,,,
1,0,0,105.4753,1,0,,,,,,,,,,,,,,,,,,,,,
0,3,2,77.89868,0,1,,,,,,,,,,,,,,,,,,,,,
1,0,0,39.31329,1,0,,,,,,,,,,,,,,,,,,,,,
0,2,2,98.75713,0,0,,,,,,,,,,,,,,,,,,,,,
0,1,0,40.04395,1,1,,,,,,,,,,,,,,,,,,,,,
1,0,0,34.67095,1,0,,,,,,,,,,,,,,,,,,,,,
1,0,0,62.88218,1,0,,,,,,,,,,,,,,,,,,,,,
0,1,1,35.73639,0,0,,,,,,,,,,,,,,,,,,,,,
1,0,0,51.39887,1,0,,,,,,,,,,,,,,,,,,,,,
0,1,1,88.63631,0,0,,,,,,,,,,,,,,,,,,,,,
0,1,0,49.98626,1,1,,,,,,,,,,,,,,,,,,,,,
1,0,0,55.6583,1,0,,,,,,,,,,,,,,,,,,,,,
0,1,1,42.35049,0,0,,,,,,,,,,,,,,,,,,,,,
1,0,0,44.33303,1,0,,,,,,,,,,,,,,,,,,,,,
1,0,0,28.48319,1,0,,,,,,,,,,,,,,,,,,,,,
1,0,0,31.34863,1,0,,,,,,,,,,,,,,,,,,,,,
1,0,0,31.31593,1,0,,,,,,,,,,,,,,,,,,,,,
1,0,0,23.15592,1,0,,,,,,,,,,,,,,,,,,,,,
1,0,0,35.58652,1,0,,,,,,,,,,,,,,,,,,,,,
0,1,1,32.26754,0,0,,,,,,,,,,,,,,,,,,,,,
0,2,1,19.66937,0,1,,,,,,,,,,,,,,,,,,,,,
1,0,0,28.28306,1,0,,,,,,,,,,,,,,,,,,,,,
1,0,0,17.5073,1,0,,,,,,,,,,,,,,,,,,,,,
0,2,1,21.70336,0,1,,,,,,,,,,,,,,,,,,,,,
,,M,57.74790536,,0.2444444444,,,,,,,,,,,,,,,,,,,,,
,,SD,35.11885823,,0.5245079868,,,,,,,,,,,,,,,,,,,,,
,,,,,exp p value,exp value,,,,,,,,,,,,,,,,,,,,
,,<20,3,,0.1423,25.614,,,,,,,,,,,,,,,,,,,,
,,20-30,28,,0.0725,13.05,,,,,,,,,,,,,,,,,,,,
,,30-40,32,,0.0902,16.236,,,,,,,,,,,,,,,,,,,,
,,40-50,34,,0.1079,19.422,,,,,,,,,,,,,,,,,,,,
,,50-60,23,,0.111,19.98,,,,,,,,,,,,,,,,,,,,
,,60-70,14,,0.1129,20.322,,,,Chi squared equals 71.506 with 6 degrees of freedom.,,,,,,,,,,,,,,,,
,,70+,46,,0.3632,65.376,,,,The two-tailed P value is less than 0.0001,,,,,,,,,,,,,,,,
,,total = ,180,,1,180,,,,,,,,,,,,,,,,,,,,