%YAML 1.1
%TAG !u! tag:unity3d.com,2011:
--- !u!1045 &1
EditorBuildSettings:
  m_ObjectHideFlags: 0
  serializedVersion: 2
  m_Scenes:
  - enabled: 0
    path: Assets/MRTK/Examples/Demos/Audio/Scenes/TextToSpeechExamples.unity
    guid: 1e93c6d5e2107e54196d430f0c126f70
  - enabled: 0
    path: Assets/vuforiaPlayground.unity
    guid: 5f3a0d913f4b0be4e80458d32f70f6e4
  - enabled: 0
    path: Assets/aidanPlayground.unity
    guid: 4ff54e9433741bc49a948387e3354794
  - enabled: 1
    path: Assets/crossRealityQuestPro.unity
    guid: 328d36e6f26df724cb01fea71c1316fb
  - enabled: 1
    path: Assets/3D Skybox/Swiss Freebies/Demos/sdr/01-Snowy Bridge_sdr.unity
    guid: 169c577e65f34b94694c062486c192bf
  m_configObjects:
    Unity.XR.OpenVR.Settings: {fileID: 11400000, guid: 5786b682bb3779845bb176d5c6982fdd, type: 2}
    Unity.XR.WindowsMR.Settings: {fileID: 11400000, guid: 7477493e0c3764b4e9a9e8b659488e96, type: 2}
    com.unity.input.settings: {fileID: 11400000, guid: 2c6c1ac7cd4b1b240ae68a26a0c0c6ce, type: 2}
    com.unity.xr.management.loader_settings: {fileID: 11400000, guid: 7b344dbb141f9d142b9035a83d35e18e, type: 2}
    com.unity.xr.openxr.settings4: {fileID: 11400000, guid: 863e7a3f25720534baf8fbc88b461adb, type: 2}
